{
  "bash": [
    {
      "name": "fff",
      "url": "https://github.com/dylanaraps/fff"
    },
    {
      "name": "brightnessctl",
      "url": "https://github.com/jappeace/brightnessctl"
    },
    {
      "name": "pure-getopt",
      "url": "https://github.com/agriffis/pure-getopt"
    },
    {
      "name": "myfetch",
      "url": "https://codeberg.org/blau_araujo/myfetch",
      "branch": "main"
    },
    {
      "name": "foldish",
      "url": "https://codeberg.org/blau_araujo/foldish",
      "branch": "main"
    },
    {
      "name": "org2term",
      "url": "https://codeberg.org/blau_araujo/org2term",
      "branch": "main"
    }
  ],
  "misc": [
    {
      "name": "robert-van-engelen-unix-tools",
      "url": "https://github.com/Robert-van-Engelen/unix-tools",
      "branch": "main"
    },
    {
      "name": "jwiegley/scripts",
      "url": "https://github.com/jwiegley/scripts"
    }
  ]
}
