{
    "official": [
        {
            "name": "ziglang-org",
            "url": "https://github.com/ziglang/www.ziglang.org",
            "branch": "main"
        },
        {
            "name": "zig-bootstrap",
            "url": "https://github.com/ziglang/zig-bootstrap"
        },
        {
            "name": "zig",
            "url": "https://github.com/ziglang/zig"
        }
    ],
    "libs": [
        {
            "name": "superhtml",
            "url": "https://github.com/kristoff-it/superhtml",
            "branch": "main"
        },
        {
            "name": "zap",
            "url": "https://github.com/zigzap/zap"
        },
        {
            "name": "mach",
            "url": "https://github.com/hexops/mach",
            "branch": "main"
        },
        {
            "name": "libvaxis",
            "url": "https://github.com/rockorager/libvaxis",
            "branch": "main"
        },
        {
            "name": "yazap",
            "url": "https://github.com/PrajwalCH/yazap",
            "branch": "main"
        }
    ],
    "misc": [
        {
            "name": "zigcc-awesome-zig",
            "url": "https://github.com/zigcc/awesome-zig",
            "branch": "main"
        }
    ],
    "learn": [
        {
            "name": "zig-guide",
            "url": "https://github.com/Sobeston/zig.guide"
        },

        {
            "name": "zigcc-zig-cookbook",
            "url": "https://github.com/zigcc/zig-cookbook",
            "branch": "main"
        },
        {
            "name": "ziglings-exercises",
            "url": "https://codeberg.org/ziglings/exercises",
            "branch": "main"
        },
        {
            "name": "dude_the_builder-zig_in_depth",
            "url": "https://codeberg.org/dude_the_builder/zig_in_depth",
            "branch": "main"
        }
    ],
    "tools": [
        {
            "name": "zf",
            "url": "https://github.com/natecraddock/zf"
        },
        {
            "name": "waylock",
            "url": "https://github.com/ifreund/waylock"
        },
        {
            "name": "jetzig",
            "url": "https://github.com/jetzig-framework/jetzig",
            "branch": "main"
        },
        {
            "name": "river",
            "url": "https://codeberg.org/river/river"
        },
        {
            "name": "arocc",
            "url": "https://github.com/Vexu/arocc"
        },
        {
            "name": "bunjs",
            "url": "https://github.com/oven-sh/bun",
            "branch": "main"
        },
        {
            "name": "zls",
            "url": "https://github.com/zigtools/zls"
        }
    ]
}
